<?xml version="1.0" encoding="UTF-8" ?>
<!DOCTYPE svg PUBLIC "-//W3C//DTD SVG 1.1//EN" "http://www.w3.org/Graphics/SVG/1.1/DTD/svg11.dtd">
<svg width="1280pt" height="640pt" viewBox="0 0 1280 640" version="1.1" xmlns="http://www.w3.org/2000/svg">
<g id="#d90012ff">
<path fill="#d90012" opacity="1.00" d=" M 0.00 0.00 L 1280.00 0.00 L 1280.00 213.00 C 853.33 213.00 426.67 213.00 0.00 213.00 L 0.00 0.00 Z" />
</g>
<g id="#4d3e6eff">
<path fill="#4d3e6e" opacity="1.00" d=" M 0.00 213.00 C 426.67 213.00 853.33 213.00 1280.00 213.00 L 1280.00 214.00 C 853.33 214.00 426.67 214.00 0.00 214.00 L 0.00 213.00 Z" />
<path fill="#4d3e6e" opacity="1.00" d=" M 0.00 426.00 C 426.67 426.00 853.33 426.00 1280.00 426.00 L 1280.00 427.00 C 853.33 427.00 426.67 427.00 0.00 427.00 L 0.00 426.00 Z" />
</g>
<g id="#0033a0ff">
<path fill="#0033a0" opacity="1.00" d=" M 0.00 214.00 C 426.67 214.00 853.33 214.00 1280.00 214.00 L 1280.00 426.00 C 853.33 426.00 426.67 426.00 0.00 426.00 L 0.00 214.00 Z" />
</g>
<g id="#f2a800ff">
<path fill="#f2a800" opacity="1.00" d=" M 0.00 427.00 C 426.67 427.00 853.33 427.00 1280.00 427.00 L 1280.00 640.00 L 0.00 640.00 L 0.00 427.00 Z" />
</g>
</svg>
