<svg xmlns="http://www.w3.org/2000/svg" width="36" height="36" viewBox="0 0 36 36">
  <g transform="translate(-831 -8512)">
    <g transform="translate(831 8512)">
      <circle cx="18" cy="18" r="18" stroke="none"/>
      <circle cx="18" cy="18" r="17.5"/>
    </g>
    <g transform="translate(-2 -2)">
      <rect class="wt" width="16" height="2" transform="translate(843 8531)"/>
      <rect class="wt" width="16" height="2" transform="translate(852 8524) rotate(90)"/>
    </g>
  </g>
</svg>
