<svg xmlns="http://www.w3.org/2000/svg" width="36" height="36" viewBox="0 0 36 36">
  <g transform="translate(-554 -5626)">
    <g class="soc-ellipse" transform="translate(554 5626)">
      <circle cx="18" cy="18" r="18" stroke="none"/>
      <circle cx="18" cy="18" r="17.5" fill="none"/>
    </g>
    <g transform="translate(1.459 5.459)">
      <g transform="translate(562.472 5630.472)">
            <path d="M11.1,0H5.045A5.045,5.045,0,0,0,0,5.045V11.1a5.045,5.045,0,0,0,5.045,5.045H11.1A5.045,5.045,0,0,0,16.144,11.1V5.045A5.045,5.045,0,0,0,11.1,0ZM14.63,11.1A3.535,3.535,0,0,1,11.1,14.63H5.045A3.535,3.535,0,0,1,1.513,11.1V5.045A3.535,3.535,0,0,1,5.045,1.513H11.1A3.535,3.535,0,0,1,14.63,5.045Z"/>
        <g transform="translate(4.036 4.036)">
            <path d="M132.036,128a4.036,4.036,0,1,0,4.036,4.036A4.036,4.036,0,0,0,132.036,128Zm0,6.558a2.522,2.522,0,1,1,2.522-2.522A2.526,2.526,0,0,1,132.036,134.558Z" transform="translate(-128 -128)"/>
        </g>
        <g transform="translate(11.873 3.195)">
            <circle cx="0.538" cy="0.538" r="0.538"/>
        </g>
      </g>
      <rect width="18" height="18" transform="translate(561.541 5629.541)" fill="none"/>
    </g>
  </g>
</svg>
