<svg xmlns="http://www.w3.org/2000/svg" width="36" height="36" viewBox="0 0 36 36">
  <g transform="translate(-612 -5626)">
    <g class="soc-ellipse" transform="translate(612 5626)">
      <circle cx="18" cy="18" r="18"/>
      <circle cx="18" cy="18" r="17.5"/>
    </g>
    <g transform="translate(0.002 3.002)">
      <g transform="translate(621.701 5634.084)">
        <g transform="translate(0 0)">
          <path d="M16.848,49.621a7.2,7.2,0,0,1-1.99.545,3.435,3.435,0,0,0,1.52-1.909,6.9,6.9,0,0,1-2.19.836,3.454,3.454,0,0,0-5.975,2.362,3.557,3.557,0,0,0,.08.788,9.777,9.777,0,0,1-7.12-3.613,3.455,3.455,0,0,0,1.061,4.616,3.411,3.411,0,0,1-1.561-.425v.038a3.47,3.47,0,0,0,2.767,3.394,3.447,3.447,0,0,1-.906.114,3.054,3.054,0,0,1-.654-.059,3.487,3.487,0,0,0,3.228,2.406A6.94,6.94,0,0,1,.827,60.187,6.469,6.469,0,0,1,0,60.139a9.724,9.724,0,0,0,5.3,1.55A9.763,9.763,0,0,0,15.13,51.86c0-.153-.005-.3-.013-.446A6.891,6.891,0,0,0,16.848,49.621Z" transform="translate(0 -48)"/>
        </g>
      </g>
      <rect width="18" height="18" transform="translate(620.998 5631.998)" fill="none"/>
    </g>
  </g>
</svg>
